{ 
"tags" : [
	{ "name" : "Choose a category", 
	  "items" : ["#jeDonne", "#jePrête", "#jeTroque", "#jePartage", "#jeVends", "#jeLoue", "#jePropose"]
	},
	
	{ "name" : "Choose a type", 
	  "items" : ["#unBienMatériel", "#unSavoir", "#unService"]
	},
	
	{ "name" : "EMPLOI", 
	  "items" : ["#offreEmplois", "#rechercheEmplois"]
	},
	
	{ "name" : "VÉHICULES", 
	  "items" : ["#Voitures", "#Motos", "#Caravaning", "#Utilitaires", "#ÉquipementAuto", "#ÉquipementMoto", "#ÉquipementCaravaning", "#Nautisme", "#ÉquipementNautisme"]
	},
	
	{ "name" : "IMMOBILIER", 
	  "items" : ["#Maison", "#Appartement", "#Terrain", "#Local", "#Garage"]
	}

	
	]

}
